ADNI Data Analysis - DataCraft Storyteller
…
Vol <- Group |> filter(Type == "VOL")
name <- Vol$value

由分区count可以看出各区域采样均衡，左右*（N/V）共四个

df <- tibble(
  脑区 = name,
  # group = group,
  # group = Group$Side,
  group = Group$Area,
  # group = Group$Type,
) |> mutate(source = 0:45) |> relocate(source)
df

## # A tibble: 46 × 3
##    source 脑区          group
##     <int> <chr>         <chr>
##  1      0 LEFT_CA1_VOL  CA1  
##  2      1 LEFT_CA1_NS   CA1  
##  3      2 LEFT_CA3_VOL  CA3  
##  4      3 LEFT_CA3_NS   CA3  
##  5      4 LEFT_DG_VOL   DG   
##  6      5 LEFT_DG_NS    DG   
##  7      6 LEFT_MISC_VOL MISC 
##  8      7 LEFT_MISC_NS  MISC 
##  9      8 LEFT_SUB_VOL  SUB  
## 10      9 LEFT_SUB_NS   SUB  
## # ℹ 36 more rows
…
## # Tuning results
## # 5-fold cross-validation 
## # A tibble: 5 × 4
##   splits            id    .metrics          .notes          
##   <list>            <chr> <list>            <list>          
## 1 <split [485/122]> Fold1 <tibble [50 × 6]> <tibble [0 × 3]>
## 2 <split [485/122]> Fold2 <tibble [50 × 6]> <tibble [0 × 3]>
## 3 <split [486/121]> Fold3 <tibble [50 × 6]> <tibble [0 × 3]>
## 4 <split [486/121]> Fold4 <tibble [50 × 6]> <tibble [0 × 3]>
## 5 <split [486/121]> Fold5 <tibble [50 × 6]> <tibble [0 × 3]>

collect_metrics(tree_res)

## # A tibble: 50 × 8
##    cost_complexity tree_depth .metric  .estimator  mean     n std_err .config   
##              <dbl>      <int> <chr>    <chr>      <dbl> <int>   <dbl> <chr>     
##  1    0.0000000001          2 accuracy multiclass 0.618     5 0.0111  Preproces…
##  2    0.0000000001          2 roc_auc  hand_till  0.653     5 0.0179  Preproces…
##  3    0.0000000178          2 accuracy multiclass 0.618     5 0.0111  Preproces…
##  4    0.0000000178          2 roc_auc  hand_till  0.653     5 0.0179  Preproces…
##  5    0.00000316            2 accuracy multiclass 0.618     5 0.0111  Preproces…
##  6    0.00000316            2 roc_auc  hand_till  0.653     5 0.0179  Preproces…
##  7    0.000562              2 accuracy multiclass 0.618     5 0.0111  Preproces…
##  8    0.000562              2 roc_auc  hand_till  0.653     5 0.0179  Preproces…
##  9    0.1                   2 accuracy multiclass 0.578     5 0.00830 Preproces…
## 10    0.1                   2 roc_auc  hand_till  0.525     5 0.0253  Preproces…
## # ℹ 40 more rows
…
# 进行网格调参：
tree_grid <- grid_regular(min_n(c(2,6)),
                          tree_depth(c(2,6)),
                          levels = 5)
# 返回25种组合
tree_grid

## # A tibble: 25 × 2
##    min_n tree_depth
##    <int>      <int>
##  1     2          2
##  2     3          2
##  3     4          2
##  4     5          2
##  5     6          2
##  6     2          3
##  7     3          3
##  8     4          3
##  9     5          3
## 10     6          3
## # ℹ 15 more rows
…
