Automobile Data Analysis - DataCraft Storyteller
…
null_distribution_cars <- auto_char |> drop_na() |>  
  specify(formula = 价格 ~ 增压机类型) |>   
  hypothesize(null = "independence") |>   
  generate(reps = 1000, type = "permute") |>   
  calculate(stat = "diff in means",order = c("std", "turbo")) 
null_distribution_cars  

## Response: 价格 (numeric)
## Explanatory: 增压机类型 (factor)
## Null Hypothesis: independence
## # A tibble: 1,000 × 2
##    replicate   stat
##        <int>  <dbl>
##  1         1   532.
##  2         2   537.
##  3         3  1289.
##  4         4   564.
##  5         5 -1142.
##  6         6  2147.
##  7         7 -1002.
##  8         8  -796.
##  9         9  -173.
## 10        10 -1835.
## # ℹ 990 more rows
…
